Hostname, Domain, IP, VLAN, Gateway, Subnet, DNS, MAC, IPv6, vMotionIP, vMotionSubnet, vMotionVLAN
ESXiN01,e.nectar.gov.sg,192.168.1.108,0,,255.255.255.0,,vmnic7,No,192.168.1.2,255.255.255.0,3000
ESXiN02,e.nectar.gov.sg,192.168.1.109,0,,255.255.255.0,,,No,192.168.1.5,255.255.255.0,3000
ESXiN03,e.nectar.gov.sg,192.168.1.109,0,,255.255.255.0,,,No,192.168.1.5,255.255.255.0,3000
ESXiN04,e.nectar.gov.sg,192.168.1.109,0,,255.255.255.0,,,No,192.168.1.5,255.255.255.0,3000
ESXiN05,e.nectar.gov.sg,192.168.1.109,0,,255.255.255.0,,,No,192.168.1.5,255.255.255.0,3000
ESXiN06,e.nectar.gov.sg,192.168.1.109,0,,255.255.255.0,,,No,192.168.1.5,255.255.255.0,3000
